{"mechanisms": [{"action_type": "INHIBITOR", "binding_site_comment": null, "direct_interaction": 1, "disease_efficacy": 1, "max_phase": 3, "mec_id": 7795, "mechanism_comment": null, "mechanism_of_action": "Cytotoxic T-lymphocyte protein 4 inhibitor", "mechanism_refs": [{"ref_id": "NCT03852251", "ref_type": "ClinicalTrials", "ref_url": "https://www.clinicaltrials.gov/ct2/show/NCT03852251"}, {"ref_id": "https://ascopubs.org/doi/abs/10.1200/JCO.2021.39.3_suppl.232", "ref_type": "Other", "ref_url": "https://ascopubs.org/doi/abs/10.1200/JCO.2021.39.3_suppl.232"}, {"ref_id": "https://www.akesobio.com/media/1306/akeso-2020-interim-results-presentation.pdf", "ref_type": "Other", "ref_url": "https://www.akesobio.com/media/1306/akeso-2020-interim-results-presentation.pdf"}], "molecular_mechanism": 1, "molecule_chembl_id": "CHEMBL4594456", "parent_molecule_chembl_id": "CHEMBL4594456", "record_id": 3461126, "selectivity_comment": null, "site_id": null, "target_chembl_id": "CHEMBL2364164", "variant_sequence": null}, {"action_type": "INHIBITOR", "binding_site_comment": null, "direct_interaction": 1, "disease_efficacy": 1, "max_phase": 3, "mec_id": 8877, "mechanism_comment": null, "mechanism_of_action": "Cytotoxic T-lymphocyte protein 4 inhibitor", "mechanism_refs": [{"ref_id": "https://ascopubs.org/doi/abs/10.1200/JCO.2019.37.15_suppl.2554", "ref_type": "Other", "ref_url": "https://ascopubs.org/doi/abs/10.1200/JCO.2019.37.15_suppl.2554"}], "molecular_mechanism": 1, "molecule_chembl_id": "CHEMBL4650483", "parent_molecule_chembl_id": "CHEMBL4650483", "record_id": 3490286, "selectivity_comment": null, "site_id": null, "target_chembl_id": "CHEMBL2364164", "variant_sequence": null}], "page_meta": {"limit": 2, "next": "/chembl/api/data/mechanism.json?limit=2&offset=4&target_chembl_id=CHEMBL2364164", "offset": 2, "previous": "/chembl/api/data/mechanism.json?limit=2&offset=0&target_chembl_id=CHEMBL2364164", "total_count": 6}}