{"mechanisms": [{"action_type": "INHIBITOR", "binding_site_comment": null, "direct_interaction": 1, "disease_efficacy": 1, "max_phase": 4, "mec_id": 1422, "mechanism_comment": null, "mechanism_of_action": "Cytotoxic T-lymphocyte protein 4 inhibitor", "mechanism_refs": [{"ref_id": "setid=2265ef30-253e-11df-8a39-0800200c9a66", "ref_type": "DailyMed", "ref_url": "http://dailymed.nlm.nih.gov/dailymed/lookup.cfm?setid=2265ef30-253e-11df-8a39-0800200c9a66"}], "molecular_mechanism": 1, "molecule_chembl_id": "CHEMBL1789844", "parent_molecule_chembl_id": "CHEMBL1789844", "record_id": 1394676, "selectivity_comment": null, "site_id": null, "target_chembl_id": "CHEMBL2364164", "variant_sequence": null}, {"action_type": "INHIBITOR", "binding_site_comment": null, "direct_interaction": 1, "disease_efficacy": 1, "max_phase": 4, "mec_id": 5485, "mechanism_comment": "Blocks the binding of the antigen-presenting cell ligands B7.1 and B7.2 to CTLA-4, resulting in inhibition of B7-CTLA-4-mediated downregulation of T-cell activation.", "mechanism_of_action": "Cytotoxic T-lymphocyte protein 4 inhibitor", "mechanism_refs": [{"ref_id": "22437870", "ref_type": "PubMed", "ref_url": "http://europepmc.org/abstract/MED/22437870"}, {"ref_id": "27042127", "ref_type": "PubMed", "ref_url": "http://europepmc.org/abstract/MED/27042127"}], "molecular_mechanism": 1, "molecule_chembl_id": "CHEMBL2108658", "parent_molecule_chembl_id": "CHEMBL2108658", "record_id": 1697523, "selectivity_comment": null, "site_id": null, "target_chembl_id": "CHEMBL2364164", "variant_sequence": null}], "page_meta": {"limit": 2, "next": "/chembl/api/data/mechanism.json?limit=2&offset=2&target_chembl_id=CHEMBL2364164", "offset": 0, "previous": null, "total_count": 6}}